unsatfiles/uuf75-01.cnf	900.001	299
unsatfiles/uuf75-02.cnf	900.001	295
unsatfiles/uuf75-03.cnf	900.001	302
unsatfiles/uuf75-04.cnf	900.001	298
unsatfiles/uuf75-05.cnf	900.001	296
unsatfiles/uuf75-06.cnf	900.001	302
unsatfiles/uuf75-07.cnf	900.001	294
unsatfiles/uuf75-08.cnf	900.001	300
unsatfiles/uuf75-09.cnf	900.001	300
unsatfiles/uuf75-010.cnf	900.001	299
